{
	"RoboText":
	{
		"BotValue":{
			
			"ExecutionStatus":"",
			"ExceptionMessage":"",
			"OrchestratorFolderPath":"Shared",
			"YahooWebpageName":"Yahoo Finance",
			"OrganizationNameColumn":"Symbol",
			"OpenPriceColumnName":"Open Price"
			
			
		},
		
		"Assets":
		{
			"KillAppProcessName":"StockAnalysis_KillAppProcessName",
			"TimespanDelay":"StockAnalysis_TimespanDelay",
			"RetryScopeInterval":"StockAnalysis_RetryScopeInterval",
			"YahooWebpageURL":"StockAnalysis_YahooWebpageURL",
			"QueueName":"StockAnalysis_QueueName",
			"TransactionSuccessEmailBody":"StockAnalysis_TransactionSuccessEmailBody",
			"TransactionSuccessEmailSubject":"StockAnalysis_TransactionSuccessEmailSubject",
			"TransactionExceptionEmailBody":"StockAnalysis_TransactionExceptionEmailBody",
			"TransactionExceptionEmailSubject":"StockAnalysis_TransactionExceptionEmailSubject",
			"EmailHostServer":"StockAnalysis_EmailHostServer",
			"EmailReceiverList":"StockAnalysis_EmailReceiverList",
			"CCEmailReceiverList":"StockAnalysis_CCEmailReceiverList",
			"EmailFrom":"StockAnalysis_EmailFrom",
			"EmailAccountName":"StockAnalysis_EmailAccountName",
			"EmailAttachmentsFilePath":"StockAnalysis_EmailAttachmentsFilePath"
		}
		
	},
	"RoboInt":
	{
		"BotValue":
		{
			"AERetryCount":0,
			"RetryCount":0
			
			
		},
		
		"Assets":
		{
			"Delay":"StockAnalysis_Delay",
			"DelayL":"StockAnalysis_DelayL",
			"DelayM":"StockAnalysis_DelayM",
			"DelayS":"StockAnalysis_DelayS",
			"Timeout":"StockAnalysis_Timeout",
			"TimeoutL":"StockAnalysis_TimeoutL",
			"TimeoutM":"StockAnalysis_TimeoutM",
			"TimeoutS":"StockAnalysis_TimeoutS",
			"MaxLoopsAE":"StockAnalysis_MaxLoopsAE",
			"MaxLoopCount":"StockAnalysis_MaxLoopCount",
			"EmailPort":"StockAnalysis_EmailPort"
		}
		
	},
	"RoboBool":
	{
		"BotValue":
		{
			"ActionSuccess":false,
			"NoRecovery":false,
			"ShouldStop":false,
			"OpenPriceColumnAdded":false
		
		},
		
		"Assets":
		{
			"WeekendProcessingAllowed":"StockAnalysis_WeekendProcessingAllowed",
			"PerTransactionEmailRequired":"StockAnalysis_PerTransactionEmailRequired",
			"AttachmentsRequired":"StockAnalysis_AttachmentsRequired"
		}
		
	},
	"RoboCred":
	{
		
	},
	"CaseText":
	{
		"UniqueID":"",
		"OrganizationSymbol":"",
		"StockOpenPrice":""
		
	},
	"CaseInt":
	{
		"StocksCount":0,
		"StocksCounter":0,
		"SymbolRowIndex":0
		
	},
	"CaseBool":
	{
		"TransactionSuccessEmail":false
		
	},
	"Selectors":
	{
		"Yahoo_FinanceHomepage":"<html app='msedge.exe' title='*Yahoo Finance*' />",
		"Yahoo_FinanceHomepage_TendingTickersLink":"<html app='msedge.exe' title='Yahoo Finance*' /><webctrl aaname='Trending Tickers' parentid='data-util-col' tag='A' />",
		"Yahoo_TendingTickersPage":"<html app='msedge.exe' title='Trending Stocks Today - Yahoo Finance' />",
		"Yahoo_TendingTickersPage_TendingTickersTable_Metadata":"<extract-table get_columns_name='1' get_empty_columns='1' columns_name_source='Longest'><column name='Symbol' attr='text' /><column name='Name' attr='text' /><column name='Last Price' attr='text' /><column name='Market Time' attr='text' /><column name='Change' attr='text' /><column name='% Change' attr='text' /><column name='Volume' attr='text' /><column name='Market Cap' attr='text' /><column name='Intraday High/Low' attr='text' /><column name='52 Week Range' attr='text' /><column name='Day Chart' attr='text' /></extract-table>",
		"Yahoo_TendingTickersPage_TendingTickersTable":"<webctrl tag='TABLE' />",
		"Yahoo_TendingTickersPage_TendingTickersTable_Symbol":"<html app='msedge.exe' title='*' /><webctrl tag='TABLE' /><webctrl tableRow='*' tag='A' aaname='[Name]' innertext='[Name]' />",
		"Yahoo_QuotePage_StockOpenPrice":"<html app='msedge.exe' title='*' /><webctrl tag='TABLE' /><webctrl isleaf='1' tableRow='2' tag='TD' rowName='Open' />",
		"Yahoo_QuotePage_BackBtn":"<wnd app='msedge.exe' cls='Chrome_WidgetWin_1' title='*Stock Price, News, Quote &amp; History - Yahoo Fi*' /><ctrl name='*' role='pane' /><ctrl name='Back' role='push button' />",
		
		
	}


}